<?xml version="1.0" encoding="utf-8"?>
<!-- Generator: Adobe Illustrator 17.0.0, SVG Export Plug-In . SVG Version: 6.00 Build 0)  -->
<!DOCTYPE svg PUBLIC "-//W3C//DTD SVG 1.1//EN" "http://www.w3.org/Graphics/SVG/1.1/DTD/svg11.dtd">
<svg version="1.1" id="Layer_1" xmlns="http://www.w3.org/2000/svg" xmlns:xlink="http://www.w3.org/1999/xlink" x="0px" y="0px"
	 width="500px" height="414.305px" viewBox="0 0 500 414.305" enable-background="new 0 0 500 414.305" xml:space="preserve">
<g>
	<path fill="#010101" d="M180.878,306.435c-5.301-12.36-17.406-20.345-30.839-20.345H64.661c-13.447,0-25.538,7.985-30.839,20.331
		L0.54,384.097c-0.886,2.066-0.671,4.442,0.564,6.334s3.342,3.019,5.596,3.019h201.301c0.08,0,0.174,0,0.269,0
		c3.704,0,6.71-3.006,6.71-6.71c-0.001-1.583-0.551-3.046-1.477-4.2L180.878,306.435z M16.872,380.03l29.282-68.321
		c3.181-7.408,10.441-12.199,18.507-12.199h85.365c8.065,0,15.326,4.791,18.507,12.199l29.282,68.321H16.872z"/>
	<path fill="#010101" d="M140.9,312.93H64.661c-2.684,0-5.113,1.597-6.173,4.066l-17.258,40.26c-1.463,3.395,0.121,7.341,3.53,8.804
		c0.859,0.375,1.758,0.55,2.644,0.55c2.604,0,5.086-1.517,6.16-4.066l15.513-36.194H140.9c3.704,0,6.71-3.006,6.71-6.71
		S144.604,312.93,140.9,312.93z"/>
	<path fill="#010101" d="M194.58,192.149h-76.682c-2.697,0-5.113,1.597-6.16,4.066l-17.258,40.26
		c-1.463,3.409,0.108,7.354,3.516,8.804c0.859,0.376,1.758,0.55,2.644,0.55c2.604,0,5.073-1.517,6.16-4.066l15.513-36.194h72.267
		c3.704,0,6.71-3.006,6.71-6.71S198.284,192.149,194.58,192.149z"/>
	<path fill="#010101" d="M60.38,272.67h201.301c0.081,0,0.174-0.013,0.269,0c3.704,0,6.71-3.006,6.71-6.71
		c-0.001-1.583-0.55-3.046-1.476-4.2l-32.624-76.105c-5.301-12.36-17.406-20.345-30.84-20.345h-85.378
		c-13.447,0-25.538,7.985-30.839,20.331L54.22,263.316c-0.886,2.066-0.671,4.442,0.564,6.334S58.125,272.67,60.38,272.67z
		 M99.834,190.928c3.181-7.408,10.441-12.199,18.507-12.199h85.379c8.065,0,15.326,4.791,18.506,12.199l29.269,68.321H70.552
		L99.834,190.928z"/>
	<path fill="#010101" d="M321.52,384.11l-33.282-77.675c-5.301-12.36-17.406-20.345-30.839-20.345H194.58
		c-3.704,0-6.71,3.006-6.71,6.71s3.006,6.71,6.71,6.71h62.819c8.065,0,15.326,4.791,18.506,12.199l29.282,68.321H234.84
		c-3.704,0-6.71,3.006-6.71,6.71s3.006,6.71,6.71,6.71h80.52c2.255,0,4.361-1.127,5.596-3.006
		C322.192,388.565,322.406,386.176,321.52,384.11z"/>
	<path fill="#010101" d="M248.261,326.35c3.704,0,6.71-3.006,6.71-6.71s-3.006-6.71-6.71-6.71h-40.26c-3.704,0-6.71,3.006-6.71,6.71
		s3.006,6.71,6.71,6.71H248.261z"/>
</g>
<path fill="none" d="M358.295,228.32c0-14.09-15.029-41.331-28.18-60.118c-7.765,11.648-16.162,25.901-21.756,38.341
	c10.959,14.439,19.91,30.481,26.447,47.714C348.408,252.283,358.295,241.835,358.295,228.32z"/>
<path fill="#010101" d="M273.754,141.905c5.636,0,9.393-3.758,9.393-9.393c0-5.636-3.758-9.393-9.393-9.393h-75.146V47.967
	c0-5.636-3.758-9.393-9.393-9.393s-9.393-3.758-9.393-9.393c0-5.636,3.758-9.393,9.393-9.393h281.802
	c5.636,0,9.393,3.758,9.393,9.393c0,5.636-3.758,9.393-9.393,9.393H226.788c-5.636,0-9.393,3.758-9.393,9.393
	c0,5.635,3.757,9.393,9.393,9.393h244.228c15.969,0,28.18-12.211,28.18-28.18C499.197,13.211,486.985,1,471.016,1H189.214
	c-15.968,0-28.18,12.211-28.18,28.18c0,12.211,7.515,22.544,18.787,26.302v69.511c-4.7,0-10.678,0.835-10.678,8.093
	c0,3.577,0.471,8.833,9.367,8.833c13.379,0,28.181-0.014,41.768-0.014H273.754z"/>
<path fill="#010101" d="M330.115,168.202c13.151,18.787,28.18,46.028,28.18,60.118c0,13.515-9.887,23.963-23.489,25.937
	c2.226,5.869,4.171,11.875,5.82,18.004c21.09-4.635,36.456-22.885,36.456-43.941c0-28.18-35.695-77.026-39.453-82.662
	c-3.758-4.697-11.272-4.697-15.029,0c-2.328,3.492-16.91,23.569-27.672,45.041c4.756,5.031,9.238,10.321,13.43,15.844
	C313.953,194.103,322.35,179.85,330.115,168.202z"/>
<path fill="#010101" d="M499.197,264.015c0-12.211-7.515-22.544-18.787-26.302v-60.118c11.272-3.758,18.787-14.09,18.787-26.302
	s-7.515-22.544-18.787-26.302V85.54c0-5.636-3.758-9.393-9.393-9.393s-9.393,3.758-9.393,9.393v37.573h-75.147
	c-5.636,0-9.393,3.758-9.393,9.393c0,5.636,3.758,9.393,9.393,9.393h84.54c5.636,0,9.393,3.758,9.393,9.393
	s-3.758,9.393-9.393,9.393h-37.574c-5.636,0-9.393,3.758-9.393,9.393c0,5.636,3.758,9.393,9.393,9.393h28.18v56.36h-28.18
	c-5.636,0-9.393,3.758-9.393,9.393c0,5.635,3.758,9.393,9.393,9.393h37.573c5.636,0,9.393,3.758,9.393,9.393
	c0,5.635-3.758,9.393-9.393,9.393h-65.754c-5.636,0-9.393,3.758-9.393,9.393c0,5.636,3.758,9.393,9.393,9.393h56.36v75.147
	c0,5.636,3.758,9.393,9.393,9.393c5.635,0,9.393,3.758,9.393,9.393c0,5.635-3.758,9.393-9.393,9.393H332.576
	c-2.684,6.449-5.71,12.719-9.057,18.788h147.497c15.969,0,28.18-12.211,28.18-28.18c0-12.211-7.515-22.544-18.787-26.302v-69.506
	C491.681,286.559,499.197,276.226,499.197,264.015z"/>
<path fill="#010101" d="M433.443,376.731c5.636,0,9.393-3.758,9.393-9.393c0-5.635-3.758-9.393-9.393-9.393h-89.622
	c-1.21,6.38-2.737,12.647-4.565,18.786H433.443z"/>
<path fill="#010101" d="M330.115,273.408c3.626,0,7.139-0.406,10.511-1.147c-1.649-6.129-3.594-12.135-5.82-18.004
	c-1.524,0.221-3.082,0.365-4.691,0.365c-15.969,0-28.18-12.211-28.18-26.302c0-5.386,2.544-13.149,6.424-21.777
	c-4.192-5.523-8.675-10.813-13.43-15.844c-6.609,13.187-11.781,26.899-11.781,37.621
	C283.148,253.682,303.814,273.408,330.115,273.408z"/>
<path fill="#010101" d="M220.278,141.905"/>
</svg>
