<?xml version="1.0" encoding="utf-8"?>
<!-- Generator: Adobe Illustrator 17.0.0, SVG Export Plug-In . SVG Version: 6.00 Build 0)  -->
<!DOCTYPE svg PUBLIC "-//W3C//DTD SVG 1.1//EN" "http://www.w3.org/Graphics/SVG/1.1/DTD/svg11.dtd">
<svg version="1.1" id="Layer_1" xmlns="http://www.w3.org/2000/svg" xmlns:xlink="http://www.w3.org/1999/xlink" x="0px" y="0px"
	 width="500px" height="500px" viewBox="0 0 500 500" enable-background="new 0 0 500 500" xml:space="preserve">
<path fill="#010101" d="M307.246,159.45c0-41.118-33.332-74.45-74.45-74.45c-13.147,0-25.495,3.411-36.214,9.391
	C185.863,88.411,173.514,85,160.368,85c-41.118,0-74.45,33.332-74.45,74.45c0,13.27,3.484,25.721,9.569,36.509
	c-6.085,10.789-9.569,23.239-9.569,36.509c0,41.118,33.332,74.45,74.45,74.45c13.147,0,25.495-3.411,36.214-9.391
	c10.719,5.98,23.067,9.391,36.214,9.391c41.118,0,74.45-33.332,74.45-74.45c0-13.27-3.484-25.721-9.569-36.509
	C303.762,185.171,307.246,172.72,307.246,159.45z M218.14,283.861c-1.283,0-2.555-0.045-3.82-0.117
	c8.708-9.162,15.12-20.528,18.28-33.188c-7.958,13.799-20.728,24.471-36.019,29.72c-15.29-5.249-28.06-15.92-36.019-29.72
	c3.16,12.66,9.571,24.027,18.28,33.188c-1.265,0.072-2.537,0.117-3.82,0.117c-36.693,0-66.438-29.745-66.438-66.438
	c0-1.466,0.049-2.921,0.143-4.363c8.759,8.438,19.572,14.759,31.624,18.115c-13.087-8.023-23.182-20.448-28.222-35.215
	c5.04-14.767,15.135-27.193,28.222-35.215c-12.053,3.356-22.866,9.677-31.624,18.115c-0.094-1.442-0.143-2.897-0.143-4.363
	c0-36.693,29.745-66.438,66.438-66.438c1.283,0,2.555,0.045,3.82,0.117c-8.708,9.162-15.12,20.528-18.28,33.188
	c7.958-13.799,20.728-24.471,36.019-29.72c15.29,5.249,28.06,15.92,36.019,29.72c-3.16-12.66-9.571-24.027-18.28-33.188
	c1.265-0.072,2.537-0.117,3.82-0.117c36.693,0,66.438,29.745,66.438,66.438c0,1.466-0.049,2.921-0.143,4.363
	c-8.759-8.438-19.572-14.759-31.624-18.115c13.087,8.023,23.182,20.448,28.222,35.215c-5.04,14.767-15.135,27.193-28.222,35.215
	c12.053-3.356,22.866-9.677,31.624-18.115c0.094,1.442,0.143,2.897,0.143,4.363C284.579,254.115,254.833,283.861,218.14,283.861z"/>
<polygon fill="#010101" points="158.062,235.027 230.146,235.027 158.062,162.943 "/>
<polygon fill="#010101" points="235.116,157.973 163.032,157.973 235.116,230.057 "/>
<path fill="#010101" d="M500,460.449L352.388,312.837c24.503-32.698,39.206-73.135,39.206-117.04
	C391.594,87.829,303.765,0,195.797,0S0,87.829,0,195.797s87.829,195.797,195.797,195.797c43.905,0,84.342-14.703,117.04-39.206
	L460.449,500L500,460.449z M18.647,195.797c0-97.684,79.466-177.15,177.15-177.15s177.15,79.466,177.15,177.15
	s-79.466,177.15-177.15,177.15S18.647,293.481,18.647,195.797z M331.615,336.519c1.66-1.604,3.291-3.235,4.895-4.895
	c1.361-1.408,2.834-2.704,4.149-4.149l132.974,132.974l-13.193,13.193L327.475,340.659
	C328.92,339.344,330.207,337.871,331.615,336.519z"/>
</svg>
