<?xml version="1.0" encoding="utf-8"?>
<!-- Generator: Adobe Illustrator 17.0.0, SVG Export Plug-In . SVG Version: 6.00 Build 0)  -->
<!DOCTYPE svg PUBLIC "-//W3C//DTD SVG 1.1//EN" "http://www.w3.org/Graphics/SVG/1.1/DTD/svg11.dtd">
<svg version="1.1" id="Layer_1" xmlns="http://www.w3.org/2000/svg" xmlns:xlink="http://www.w3.org/1999/xlink" x="0px" y="0px"
	 width="483.151px" height="483.151px" viewBox="0 0 483.151 483.151" enable-background="new 0 0 483.151 483.151"
	 xml:space="preserve">
<path fill="#020202" d="M481.151,317.916c0-45.514-36.896-82.41-82.41-82.41c-14.553,0-28.221,3.776-40.086,10.395
	c-11.865-6.619-25.534-10.395-40.086-10.395c-45.514,0-82.41,36.896-82.41,82.41c0,14.689,3.857,28.471,10.592,40.413
	c-6.736,11.943-10.592,25.724-10.592,40.413c0,45.514,36.896,82.41,82.41,82.41c14.553,0,28.221-3.776,40.086-10.395
	c11.865,6.619,25.533,10.395,40.086,10.395c45.514,0,82.41-36.896,82.41-82.41c0-14.689-3.857-28.471-10.592-40.413
	C477.295,346.387,481.151,332.605,481.151,317.916z M382.518,455.629c-1.42,0-2.828-0.05-4.228-0.13
	c9.639-10.142,16.737-22.723,20.235-36.737c-8.809,15.274-22.944,27.088-39.87,32.898c-16.925-5.81-31.06-17.622-39.87-32.898
	c3.498,14.014,10.594,26.596,20.235,36.737c-1.4,0.08-2.808,0.13-4.228,0.13c-40.616,0-73.542-32.925-73.542-73.542
	c0-1.623,0.054-3.233,0.158-4.83c9.696,9.34,21.665,16.337,35.005,20.052c-14.486-8.881-25.661-22.634-31.24-38.98
	c5.579-16.346,16.753-30.101,31.24-38.98c-13.342,3.715-25.311,10.712-35.005,20.052c-0.104-1.596-0.158-3.207-0.158-4.83
	c0-40.616,32.925-73.542,73.542-73.542c1.42,0,2.828,0.05,4.228,0.129c-9.639,10.142-16.737,22.723-20.235,36.737
	c8.809-15.274,22.944-27.088,39.87-32.898c16.925,5.81,31.06,17.622,39.87,32.898c-3.498-14.014-10.594-26.596-20.235-36.737
	c1.4-0.08,2.808-0.129,4.228-0.129c40.616,0,73.542,32.925,73.542,73.542c0,1.623-0.054,3.233-0.158,4.83
	c-9.696-9.34-21.665-16.337-35.005-20.052c14.486,8.881,25.661,22.634,31.24,38.98c-5.579,16.346-16.753,30.101-31.24,38.98
	c13.342-3.715,25.311-10.712,35.005-20.052c0.104,1.596,0.158,3.207,0.158,4.829C456.061,422.703,423.134,455.629,382.518,455.629z"
	/>
<polygon fill="#020202" points="316.016,401.574 395.808,401.574 316.016,321.782 "/>
<polygon fill="#020202" points="401.309,316.281 321.518,316.281 401.309,396.072 "/>
<path fill="#010101" d="M242.076,108.154c-4.929,0-8.929,3.991-8.929,8.929s4,8.929,8.929,8.929h160.717
	c4.929,0,8.929-3.991,8.929-8.929s-4-8.929-8.929-8.929H242.076z"/>
<path fill="#010101" d="M184.753,65.662c-3.732-3.214-9.375-2.795-12.59,0.964l-55.787,65.073l-34.126-25.59
	c-3.947-2.946-9.536-2.161-12.5,1.786c-2.964,3.938-2.161,9.536,1.786,12.491l40.813,30.617c1.607,1.205,3.482,1.786,5.357,1.786
	c2.527,0,5.027-1.063,6.786-3.125l61.224-71.43C188.923,74.501,188.494,68.867,184.753,65.662z"/>
<path fill="#010101" d="M184.753,190.664c-3.732-3.214-9.375-2.795-12.59,0.964l-55.787,65.073l-34.126-25.59
	c-3.947-2.955-9.536-2.152-12.5,1.786s-2.161,9.536,1.786,12.491l40.813,30.617c1.607,1.205,3.482,1.786,5.357,1.786
	c2.527,0,5.027-1.063,6.786-3.125l61.224-71.43C188.923,199.504,188.494,193.87,184.753,190.664z"/>
<path fill="#010101" d="M172.155,325.559l-55.787,65.064l-34.117-25.59c-3.947-2.955-9.536-2.152-12.5,1.786
	s-2.161,9.536,1.786,12.491l40.813,30.617c1.607,1.205,3.482,1.786,5.357,1.786c2.527,0,5.027-1.063,6.786-3.125l61.224-71.421
	c3.205-3.741,2.777-9.375-0.964-12.581C181.012,321.381,175.369,321.809,172.155,325.559z"/>
<path fill="#010101" d="M224.218,465.303H109.716c-50.099,0-90.859-40.76-90.859-90.859V109.716c0-50.099,40.76-90.85,90.859-90.85
	h264.719c50.099,0,90.859,40.751,90.859,90.85V215.29c0,4.938,4,8.929,8.929,8.929s8.929-3.991,8.929-8.929V109.716
	C483.151,49.769,434.383,1,374.435,1H109.716C49.769,1.009,1,49.769,1,109.716v264.719c0,59.948,48.769,108.716,108.716,108.716
	h114.502c4.929,0,8.929-3.991,8.929-8.929C233.147,469.285,229.147,465.303,224.218,465.303z"/>
</svg>
